{
 "author": "KDE Community",
 "comments": {
  "dependencies": {
   "postcss": "project",
   "postcss-cli": "project",
   "rtlcss": "project"
  },
  "devDependencies": {}
 },
 "dependencies": {
  "postcss": "8.1.0",
  "postcss-cli": "8.0.0",
  "rtlcss": "^2.6.0"
 },
 "description": "",
 "devDependencies": {},
 "homepage": "",
 "license": "AGPL-3.0-or-later",
 "main": "postcss.config.js",
 "name": "hugo-kde",
 "repository": {
  "type": "git",
  "url": "git+https://invent.kde.org/websites/hugo-kde.git"
 },
 "scripts": {
  "test": "echo \"Error: no test specified\" \u0026\u0026 exit 1"
 },
 "version": "1.0.0"
}
